{
    "lmml": {
        "version": "0.1",
        "autopsy": {
            "id": 979617185,
            "completed": false,
            "approved": false,
            "number": "000",
            "autopsy_type_id": 95724296,
            "examiner_id": 517520640,
            "suspect_id": 957208549,
            "victim_id": 957208553,
            "place_id": 713079155,
            "autopsy_date": "2018-10-26",
            "starting_time": "2018-10-26T16:18:00.000+09:00",
            "ending_time": null,
            "police_station_id": 114948302,
            "police_inspector_id": 957208554,
            "court_id": 687459378,
            "judge_id": 301712148,
            "created_at": "2018-10-26T16:18:59.751+09:00",
            "updated_at": "2018-10-26T16:28:34.640+09:00",
            "autopsy_type": {
                "id": 95724296,
                "name": "司法解剖",
                "law": null,
                "created_at": "2018-10-24T12:04:36.936+09:00",
                "updated_at": "2018-10-24T12:04:36.936+09:00"
            },
            "place": {
                "id": 713079155,
                "name": "山梨大学",
                "address": "市中央市下河東1110",
                "autopsy_room": "山梨大学医学部法医解剖室",
                "institution_type_id": 544900590,
                "created_at": "2018-10-24T12:04:36.746+09:00",
                "updated_at": "2018-10-24T12:04:36.746+09:00",
                "institution_type": {
                    "id": 544900590,
                    "name": "University",
                    "created_at": "2018-10-24T12:04:36.839+09:00",
                    "updated_at": "2018-10-24T12:04:36.839+09:00"
                }
            },
            "conclusions": [],
            "explanations": [],
            "examiner": {
                "id": 517520640,
                "name": "Ms. Examiner",
                "sex": "F",
                "death_age": null,
                "dob": null,
                "title": "教授",
                "affiliation": "大学院医学工学総合研究部医学学域社会医学系法医学講座",
                "institution_id": 713079155,
                "identification_number": null,
                "created_at": "2018-10-24T12:04:36.965+09:00",
                "updated_at": "2018-10-24T12:04:36.965+09:00",
                "institution": {
                    "id": 713079155,
                    "name": "山梨大学",
                    "address": "市中央市下河東1110",
                    "autopsy_room": "山梨大学医学部法医解剖室",
                    "institution_type_id": 544900590,
                    "created_at": "2018-10-24T12:04:36.746+09:00",
                    "updated_at": "2018-10-24T12:04:36.746+09:00",
                    "institution_type": {
                        "id": 544900590,
                        "name": "University",
                        "created_at": "2018-10-24T12:04:36.839+09:00",
                        "updated_at": "2018-10-24T12:04:36.839+09:00"
                    }
                }
            },
            "suspect": {
                "id": 957208549,
                "name": "X",
                "sex": null,
                "death_age": null,
                "dob": null,
                "title": null,
                "affiliation": null,
                "institution_id": null,
                "identification_number": null,
                "created_at": "2018-10-26T16:27:46.802+09:00",
                "updated_at": "2018-10-26T16:27:46.802+09:00"
            },
            "victim": {
                "id": 957208553,
                "name": null,
                "sex": "M",
                "death_age": null,
                "dob": null,
                "title": null,
                "affiliation": null,
                "institution_id": null,
                "identification_number": null,
                "created_at": "2018-10-26T16:28:11.733+09:00",
                "updated_at": "2018-10-26T16:28:11.733+09:00"
            },
            "police_station": {
                "id": 114948302,
                "name": "〇〇警察署",
                "address": "〇〇市",
                "autopsy_room": null,
                "institution_type_id": 920777186,
                "created_at": "2018-10-24T12:04:36.746+09:00",
                "updated_at": "2018-10-24T12:04:36.746+09:00",
                "institution_type": {
                    "id": 920777186,
                    "name": "Police station",
                    "created_at": "2018-10-24T12:04:36.839+09:00",
                    "updated_at": "2018-10-24T12:04:36.839+09:00"
                }
            },
            "police_inspector": {
                "id": 957208554,
                "name": "古美門研介",
                "sex": null,
                "death_age": null,
                "dob": null,
                "title": null,
                "affiliation": null,
                "institution_id": null,
                "identification_number": null,
                "created_at": "2018-10-26T16:28:34.638+09:00",
                "updated_at": "2018-10-26T16:28:34.638+09:00"
            },
            "court": {
                "id": 687459378,
                "name": "〇〇裁判所",
                "address": "〇〇市",
                "autopsy_room": null,
                "institution_type_id": 598612288,
                "created_at": "2018-10-24T12:04:36.746+09:00",
                "updated_at": "2018-10-24T12:04:36.746+09:00",
                "institution_type": {
                    "id": 598612288,
                    "name": "Court",
                    "created_at": "2018-10-24T12:04:36.839+09:00",
                    "updated_at": "2018-10-24T12:04:36.839+09:00"
                }
            },
            "judge": {
                "id": 301712148,
                "name": "Mr. Judge",
                "sex": "M",
                "death_age": null,
                "dob": null,
                "title": null,
                "affiliation": null,
                "institution_id": 687459378,
                "identification_number": null,
                "created_at": "2018-10-24T12:04:36.965+09:00",
                "updated_at": "2018-10-24T12:04:36.965+09:00",
                "institution": {
                    "id": 687459378,
                    "name": "〇〇裁判所",
                    "address": "〇〇市",
                    "autopsy_room": null,
                    "institution_type_id": 598612288,
                    "created_at": "2018-10-24T12:04:36.746+09:00",
                    "updated_at": "2018-10-24T12:04:36.746+09:00",
                    "institution_type": {
                        "id": 598612288,
                        "name": "Court",
                        "created_at": "2018-10-24T12:04:36.839+09:00",
                        "updated_at": "2018-10-24T12:04:36.839+09:00"
                    }
                }
            },
            "participations": [
                {
                    "id": 980190963,
                    "person_id": null,
                    "autopsy_id": 979617185,
                    "role": "examiner",
                    "created_at": "2018-10-26T16:19:10.236+09:00",
                    "updated_at": "2018-10-26T16:19:10.236+09:00"
                },
                {
                    "id": 980190964,
                    "person_id": 957208548,
                    "autopsy_id": 979617185,
                    "role": "examiner",
                    "created_at": "2018-10-26T16:19:21.462+09:00",
                    "updated_at": "2018-10-26T16:19:21.462+09:00",
                    "person": {
                        "id": 957208548,
                        "name": "Ms. Professor",
                        "sex": "F",
                        "death_age": null,
                        "dob": null,
                        "title": "教授",
                        "affiliation": null,
                        "institution_id": 178506259,
                        "identification_number": null,
                        "created_at": "2018-10-24T12:04:36.965+09:00",
                        "updated_at": "2018-10-24T12:04:36.965+09:00",
                        "institution": {
                            "id": 178506259,
                            "name": "慶應義塾大学5",
                            "address": "矢上",
                            "autopsy_room": null,
                            "institution_type_id": 544900590,
                            "created_at": "2018-10-24T12:04:36.746+09:00",
                            "updated_at": "2018-10-24T12:04:36.746+09:00",
                            "institution_type": {
                                "id": 544900590,
                                "name": "University",
                                "created_at": "2018-10-24T12:04:36.839+09:00",
                                "updated_at": "2018-10-24T12:04:36.839+09:00"
                            }
                        }
                    }
                },
                {
                    "id": 980190965,
                    "person_id": 957208548,
                    "autopsy_id": 979617185,
                    "role": "requester",
                    "created_at": "2018-10-26T16:29:47.236+09:00",
                    "updated_at": "2018-10-26T16:29:47.236+09:00",
                    "person": {
                        "id": 957208548,
                        "name": "Ms. Professor",
                        "sex": "F",
                        "death_age": null,
                        "dob": null,
                        "title": "教授",
                        "affiliation": null,
                        "institution_id": 178506259,
                        "identification_number": null,
                        "created_at": "2018-10-24T12:04:36.965+09:00",
                        "updated_at": "2018-10-24T12:04:36.965+09:00",
                        "institution": {
                            "id": 178506259,
                            "name": "慶應義塾大学5",
                            "address": "矢上",
                            "autopsy_room": null,
                            "institution_type_id": 544900590,
                            "created_at": "2018-10-24T12:04:36.746+09:00",
                            "updated_at": "2018-10-24T12:04:36.746+09:00",
                            "institution_type": {
                                "id": 544900590,
                                "name": "University",
                                "created_at": "2018-10-24T12:04:36.839+09:00",
                                "updated_at": "2018-10-24T12:04:36.839+09:00"
                            }
                        }
                    }
                },
                {
                    "id": 980190966,
                    "person_id": 957208548,
                    "autopsy_id": 979617185,
                    "role": "authorizer",
                    "created_at": "2018-10-26T16:29:59.168+09:00",
                    "updated_at": "2018-10-26T16:29:59.168+09:00",
                    "person": {
                        "id": 957208548,
                        "name": "Ms. Professor",
                        "sex": "F",
                        "death_age": null,
                        "dob": null,
                        "title": "教授",
                        "affiliation": null,
                        "institution_id": 178506259,
                        "identification_number": null,
                        "created_at": "2018-10-24T12:04:36.965+09:00",
                        "updated_at": "2018-10-24T12:04:36.965+09:00",
                        "institution": {
                            "id": 178506259,
                            "name": "慶應義塾大学5",
                            "address": "矢上",
                            "autopsy_room": null,
                            "institution_type_id": 544900590,
                            "created_at": "2018-10-24T12:04:36.746+09:00",
                            "updated_at": "2018-10-24T12:04:36.746+09:00",
                            "institution_type": {
                                "id": 544900590,
                                "name": "University",
                                "created_at": "2018-10-24T12:04:36.839+09:00",
                                "updated_at": "2018-10-24T12:04:36.839+09:00"
                            }
                        }
                    }
                },
                {
                    "id": 980190967,
                    "person_id": 43613396,
                    "autopsy_id": 979617185,
                    "role": "authorizer",
                    "created_at": "2018-10-26T16:30:01.131+09:00",
                    "updated_at": "2018-10-26T16:30:01.131+09:00",
                    "person": {
                        "id": 43613396,
                        "name": "Mr. Assistant",
                        "sex": "M",
                        "death_age": null,
                        "dob": null,
                        "title": "准教授",
                        "affiliation": null,
                        "institution_id": 713079155,
                        "identification_number": null,
                        "created_at": "2018-10-24T12:04:36.965+09:00",
                        "updated_at": "2018-10-24T12:04:36.965+09:00",
                        "institution": {
                            "id": 713079155,
                            "name": "山梨大学",
                            "address": "市中央市下河東1110",
                            "autopsy_room": "山梨大学医学部法医解剖室",
                            "institution_type_id": 544900590,
                            "created_at": "2018-10-24T12:04:36.746+09:00",
                            "updated_at": "2018-10-24T12:04:36.746+09:00",
                            "institution_type": {
                                "id": 544900590,
                                "name": "University",
                                "created_at": "2018-10-24T12:04:36.839+09:00",
                                "updated_at": "2018-10-24T12:04:36.839+09:00"
                            }
                        }
                    }
                }
            ],
            "examinations": [
                {
                    "id": 1011745073,
                    "completed": false,
                    "note": null,
                    "autopsy_id": 979617185,
                    "examination_type_id": 125784806,
                    "created_at": "2018-10-26T16:18:59.825+09:00",
                    "updated_at": "2018-10-26T16:18:59.825+09:00",
                    "serialize": {
                        "id": null,
                        "examination_id": 1011745073,
                        "sex": null,
                        "height": null,
                        "weight": null,
                        "partial_body": false,
                        "constitution": null,
                        "livor_mortis_note": null,
                        "rigor_mortis_note": null,
                        "cold": null,
                        "rectal_temperature": null,
                        "room_temperature": null,
                        "created_at": null,
                        "updated_at": null
                    },
                    "examination_type": {
                        "id": 125784806,
                        "category": "external",
                        "placement": 1,
                        "subdivision": null,
                        "name": "outline",
                        "created_at": "2018-10-24T12:04:36.735+09:00",
                        "updated_at": "2018-10-24T12:04:36.735+09:00",
                        "organs": [
                            {
                                "id": 125784806,
                                "subject_to_histopathology_analysis": false,
                                "created_at": "2018-10-24T12:04:36.971+09:00",
                                "updated_at": "2018-10-24T12:04:36.971+09:00",
                                "name": "outline"
                            }
                        ]
                    },
                    "injuries": []
                },
                {
                    "id": 1011745097,
                    "completed": false,
                    "note": null,
                    "autopsy_id": 979617185,
                    "examination_type_id": 125784806,
                    "created_at": "2018-10-26T16:19:31.474+09:00",
                    "updated_at": "2018-10-26T16:19:31.474+09:00",
                    "serialize": {
                        "id": 51365944,
                        "examination_id": 1011745097,
                        "sex": "O",
                        "height": null,
                        "weight": null,
                        "partial_body": false,
                        "constitution": null,
                        "livor_mortis_note": null,
                        "rigor_mortis_note": null,
                        "cold": null,
                        "rectal_temperature": null,
                        "room_temperature": null,
                        "created_at": "2018-10-26T16:19:31.490+09:00",
                        "updated_at": "2018-10-26T16:19:35.521+09:00"
                    },
                    "examination_type": {
                        "id": 125784806,
                        "category": "external",
                        "placement": 1,
                        "subdivision": null,
                        "name": "outline",
                        "created_at": "2018-10-24T12:04:36.735+09:00",
                        "updated_at": "2018-10-24T12:04:36.735+09:00",
                        "organs": [
                            {
                                "id": 125784806,
                                "subject_to_histopathology_analysis": false,
                                "created_at": "2018-10-24T12:04:36.971+09:00",
                                "updated_at": "2018-10-24T12:04:36.971+09:00",
                                "name": "outline"
                            }
                        ]
                    },
                    "injuries": []
                },
                {
                    "id": 1011745081,
                    "completed": false,
                    "note": null,
                    "autopsy_id": 979617185,
                    "examination_type_id": 670299806,
                    "created_at": "2018-10-26T16:18:59.858+09:00",
                    "updated_at": "2018-10-26T16:18:59.858+09:00",
                    "serialize": {
                        "id": null,
                        "examination_id": 1011745081,
                        "hair_natural_color": null,
                        "hair_dyed_color": null,
                        "top_hair_length": null,
                        "side_hair_length": null,
                        "created_at": null,
                        "updated_at": null,
                        "external_ear_examinations": []
                    },
                    "examination_type": {
                        "id": 670299806,
                        "category": "external",
                        "placement": 2,
                        "subdivision": null,
                        "name": "head",
                        "created_at": "2018-10-24T12:04:36.735+09:00",
                        "updated_at": "2018-10-24T12:04:36.735+09:00",
                        "organs": [
                            {
                                "id": 670299806,
                                "subject_to_histopathology_analysis": false,
                                "created_at": "2018-10-24T12:04:36.971+09:00",
                                "updated_at": "2018-10-24T12:04:36.971+09:00",
                                "name": "head"
                            }
                        ]
                    },
                    "injuries": [
                        {
                            "id": 3,
                            "examination_id": 1011745081,
                            "description": "bone fracture",
                            "body_area_id": 2,
                            "injury_size_id": 2,
                            "injury_depth_id": 2,
                            "injury_type": "bruise",
                            "time_sustained": "unknown",
                            "parent_injury_id": null,
                            "note": null,
                            "created_at": "2018-10-26T16:24:36.464+09:00",
                            "updated_at": "2018-10-26T16:25:31.452+09:00",
                            "child_injuries": [],
                            "photographs": [],
                            "body_area": {
                                "id": 2,
                                "body_reference_id": 575591292,
                                "in_body_orientation_id": 2,
                                "created_at": "2018-10-26T16:24:44.204+09:00",
                                "updated_at": "2018-10-26T16:24:50.802+09:00",
                                "body_reference": {
                                    "id": 575591292,
                                    "position": 1,
                                    "deixis": null,
                                    "abbr": "head_top",
                                    "created_at": "2018-10-24T12:04:36.826+09:00",
                                    "updated_at": "2018-10-24T12:04:36.826+09:00",
                                    "name": "頭頂",
                                    "description": "頭の一番上の部分"
                                },
                                "in_body_orientation": {
                                    "id": 2,
                                    "coordinate_system": "front_behind",
                                    "x": 3.0,
                                    "y": 10.0,
                                    "created_at": "2018-10-26T16:24:50.799+09:00",
                                    "updated_at": "2018-10-26T16:24:57.557+09:00"
                                }
                            },
                            "injury_size": {
                                "id": 2,
                                "shape": "longitudinal",
                                "length": 3.0,
                                "width": 2.0,
                                "coordinate_system": "front_behind",
                                "angle": null,
                                "tohoku_ryu_size": "fava",
                                "created_at": "2018-10-26T16:24:50.805+09:00",
                                "updated_at": "2018-10-26T16:25:26.318+09:00"
                            },
                            "injury_depth": {
                                "id": 2,
                                "depth": 4.0,
                                "reached_organ_id": null,
                                "created_at": "2018-10-26T16:25:18.576+09:00",
                                "updated_at": "2018-10-26T16:25:22.363+09:00"
                            }
                        }
                    ]
                },
                {
                    "id": 1011745098,
                    "completed": false,
                    "note": null,
                    "autopsy_id": 979617185,
                    "examination_type_id": 670299806,
                    "created_at": "2018-10-26T16:19:46.100+09:00",
                    "updated_at": "2018-10-26T16:19:46.100+09:00",
                    "serialize": {
                        "id": 538587730,
                        "examination_id": 1011745098,
                        "hair_natural_color": "black",
                        "hair_dyed_color": "not_dyed",
                        "top_hair_length": null,
                        "side_hair_length": null,
                        "created_at": "2018-10-26T16:19:46.128+09:00",
                        "updated_at": "2018-10-26T16:19:49.140+09:00",
                        "external_ear_examinations": []
                    },
                    "examination_type": {
                        "id": 670299806,
                        "category": "external",
                        "placement": 2,
                        "subdivision": null,
                        "name": "head",
                        "created_at": "2018-10-24T12:04:36.735+09:00",
                        "updated_at": "2018-10-24T12:04:36.735+09:00",
                        "organs": [
                            {
                                "id": 670299806,
                                "subject_to_histopathology_analysis": false,
                                "created_at": "2018-10-24T12:04:36.971+09:00",
                                "updated_at": "2018-10-24T12:04:36.971+09:00",
                                "name": "head"
                            }
                        ]
                    },
                    "injuries": []
                },
                {
                    "id": 1011745070,
                    "completed": false,
                    "note": null,
                    "autopsy_id": 979617185,
                    "examination_type_id": 85228391,
                    "created_at": "2018-10-26T16:18:59.814+09:00",
                    "updated_at": "2018-10-26T16:18:59.814+09:00",
                    "serialize": {
                        "id": null,
                        "examination_id": 1011745070,
                        "congestion": null,
                        "swelling": null,
                        "nasal_cavity_content": null,
                        "created_at": null,
                        "updated_at": null,
                        "external_eye_examinations": []
                    },
                    "examination_type": {
                        "id": 85228391,
                        "category": "external",
                        "placement": 3,
                        "subdivision": null,
                        "name": "face",
                        "created_at": "2018-10-24T12:04:36.735+09:00",
                        "updated_at": "2018-10-24T12:04:36.735+09:00",
                        "organs": [
                            {
                                "id": 85228391,
                                "subject_to_histopathology_analysis": false,
                                "created_at": "2018-10-24T12:04:36.971+09:00",
                                "updated_at": "2018-10-24T12:04:36.971+09:00",
                                "name": "face"
                            }
                        ]
                    },
                    "injuries": []
                },
                {
                    "id": 1011745079,
                    "completed": false,
                    "note": null,
                    "autopsy_id": 979617185,
                    "examination_type_id": 538039891,
                    "created_at": "2018-10-26T16:18:59.851+09:00",
                    "updated_at": "2018-10-26T16:18:59.851+09:00",
                    "serialize": {
                        "id": null,
                        "examination_id": 1011745079,
                        "created_at": null,
                        "updated_at": null
                    },
                    "examination_type": {
                        "id": 538039891,
                        "category": "external",
                        "placement": 4,
                        "subdivision": null,
                        "name": "neck",
                        "created_at": "2018-10-24T12:04:36.735+09:00",
                        "updated_at": "2018-10-24T12:04:36.735+09:00",
                        "organs": [
                            {
                                "id": 538039891,
                                "subject_to_histopathology_analysis": false,
                                "created_at": "2018-10-24T12:04:36.971+09:00",
                                "updated_at": "2018-10-24T12:04:36.971+09:00",
                                "name": "neck"
                            }
                        ]
                    },
                    "injuries": []
                },
                {
                    "id": 1011745090,
                    "completed": false,
                    "note": null,
                    "autopsy_id": 979617185,
                    "examination_type_id": 945982792,
                    "created_at": "2018-10-26T16:18:59.896+09:00",
                    "updated_at": "2018-10-26T16:18:59.896+09:00",
                    "serialize": {
                        "id": null,
                        "examination_id": 1011745090,
                        "abdominal_discoloration": null,
                        "created_at": null,
                        "updated_at": null
                    },
                    "examination_type": {
                        "id": 945982792,
                        "category": "external",
                        "placement": 5,
                        "subdivision": null,
                        "name": "trunk",
                        "created_at": "2018-10-24T12:04:36.735+09:00",
                        "updated_at": "2018-10-24T12:04:36.735+09:00",
                        "organs": [
                            {
                                "id": 945982792,
                                "subject_to_histopathology_analysis": false,
                                "created_at": "2018-10-24T12:04:36.971+09:00",
                                "updated_at": "2018-10-24T12:04:36.971+09:00",
                                "name": "trunk"
                            }
                        ]
                    },
                    "injuries": []
                },
                {
                    "id": 1011745092,
                    "completed": false,
                    "note": null,
                    "autopsy_id": 979617185,
                    "examination_type_id": 953262366,
                    "created_at": "2018-10-26T16:18:59.905+09:00",
                    "updated_at": "2018-10-26T16:18:59.905+09:00",
                    "serialize": {
                        "id": null,
                        "examination_id": 1011745092,
                        "created_at": null,
                        "updated_at": null
                    },
                    "examination_type": {
                        "id": 953262366,
                        "category": "external",
                        "placement": 6,
                        "subdivision": null,
                        "name": "back",
                        "created_at": "2018-10-24T12:04:36.735+09:00",
                        "updated_at": "2018-10-24T12:04:36.735+09:00",
                        "organs": []
                    },
                    "injuries": []
                },
                {
                    "id": 1011745088,
                    "completed": false,
                    "note": null,
                    "autopsy_id": 979617185,
                    "examination_type_id": 941133818,
                    "created_at": "2018-10-26T16:18:59.887+09:00",
                    "updated_at": "2018-10-26T16:18:59.887+09:00",
                    "serialize": {
                        "id": null,
                        "examination_id": 1011745088,
                        "created_at": null,
                        "updated_at": null
                    },
                    "examination_type": {
                        "id": 941133818,
                        "category": "external",
                        "placement": 7,
                        "subdivision": null,
                        "name": "upper_limbs",
                        "created_at": "2018-10-24T12:04:36.735+09:00",
                        "updated_at": "2018-10-24T12:04:36.735+09:00",
                        "organs": [
                            {
                                "id": 941133818,
                                "subject_to_histopathology_analysis": false,
                                "created_at": "2018-10-24T12:04:36.971+09:00",
                                "updated_at": "2018-10-24T12:04:36.971+09:00",
                                "name": "upper_limbs"
                            }
                        ]
                    },
                    "injuries": []
                },
                {
                    "id": 1011745078,
                    "completed": false,
                    "note": null,
                    "autopsy_id": 979617185,
                    "examination_type_id": 526893593,
                    "created_at": "2018-10-26T16:18:59.847+09:00",
                    "updated_at": "2018-10-26T16:18:59.847+09:00",
                    "serialize": {
                        "id": null,
                        "examination_id": 1011745078,
                        "created_at": null,
                        "updated_at": null
                    },
                    "examination_type": {
                        "id": 526893593,
                        "category": "external",
                        "placement": 8,
                        "subdivision": null,
                        "name": "lower_limbs",
                        "created_at": "2018-10-24T12:04:36.735+09:00",
                        "updated_at": "2018-10-24T12:04:36.735+09:00",
                        "organs": [
                            {
                                "id": 526893593,
                                "subject_to_histopathology_analysis": false,
                                "created_at": "2018-10-24T12:04:36.971+09:00",
                                "updated_at": "2018-10-24T12:04:36.971+09:00",
                                "name": "lower_limbs"
                            }
                        ]
                    },
                    "injuries": []
                },
                {
                    "id": 1011745076,
                    "completed": false,
                    "note": null,
                    "autopsy_id": 979617185,
                    "examination_type_id": 380040498,
                    "created_at": "2018-10-26T16:18:59.838+09:00",
                    "updated_at": "2018-10-26T16:18:59.838+09:00",
                    "serialize": {
                        "id": null,
                        "examination_id": 1011745076,
                        "hair_color": null,
                        "hair_length": null,
                        "sex": null,
                        "created_at": null,
                        "updated_at": null
                    },
                    "examination_type": {
                        "id": 380040498,
                        "category": "external",
                        "placement": 9,
                        "subdivision": null,
                        "name": "genitalia",
                        "created_at": "2018-10-24T12:04:36.735+09:00",
                        "updated_at": "2018-10-24T12:04:36.735+09:00",
                        "organs": [
                            {
                                "id": 855464510,
                                "subject_to_histopathology_analysis": false,
                                "created_at": "2018-10-24T12:04:36.971+09:00",
                                "updated_at": "2018-10-24T12:04:36.971+09:00",
                                "name": "genitalia"
                            }
                        ]
                    },
                    "injuries": []
                },
                {
                    "id": 1011745095,
                    "completed": false,
                    "note": null,
                    "autopsy_id": 979617185,
                    "examination_type_id": 1003684966,
                    "created_at": "2018-10-26T16:18:59.929+09:00",
                    "updated_at": "2018-10-26T16:18:59.929+09:00",
                    "serialize": {
                        "id": null,
                        "examination_id": 1011745095,
                        "closed": null,
                        "feces_quantity": null,
                        "created_at": null,
                        "updated_at": null
                    },
                    "examination_type": {
                        "id": 1003684966,
                        "category": "external",
                        "placement": 10,
                        "subdivision": null,
                        "name": "anus",
                        "created_at": "2018-10-24T12:04:36.735+09:00",
                        "updated_at": "2018-10-24T12:04:36.735+09:00",
                        "organs": [
                            {
                                "id": 1003684966,
                                "subject_to_histopathology_analysis": false,
                                "created_at": "2018-10-24T12:04:36.971+09:00",
                                "updated_at": "2018-10-24T12:04:36.971+09:00",
                                "name": "anus"
                            }
                        ]
                    },
                    "injuries": []
                },
                {
                    "id": 1011745089,
                    "completed": false,
                    "note": null,
                    "autopsy_id": 979617185,
                    "examination_type_id": 943627256,
                    "created_at": "2018-10-26T16:18:59.891+09:00",
                    "updated_at": "2018-10-26T16:18:59.891+09:00",
                    "serialize": {
                        "id": null,
                        "examination_id": 1011745089,
                        "created_at": null,
                        "updated_at": null
                    },
                    "examination_type": {
                        "id": 943627256,
                        "category": "internal",
                        "placement": 11,
                        "subdivision": "head",
                        "name": "cranium",
                        "created_at": "2018-10-24T12:04:36.735+09:00",
                        "updated_at": "2018-10-24T12:04:36.735+09:00",
                        "organs": [
                            {
                                "id": 943627256,
                                "subject_to_histopathology_analysis": false,
                                "created_at": "2018-10-24T12:04:36.971+09:00",
                                "updated_at": "2018-10-24T12:04:36.971+09:00",
                                "name": "cranium"
                            }
                        ]
                    },
                    "injuries": []
                },
                {
                    "id": 1011745086,
                    "completed": false,
                    "note": null,
                    "autopsy_id": 979617185,
                    "examination_type_id": 868648579,
                    "created_at": "2018-10-26T16:18:59.880+09:00",
                    "updated_at": "2018-10-26T16:18:59.880+09:00",
                    "serialize": {
                        "id": null,
                        "examination_id": 1011745086,
                        "weight": null,
                        "pia_congestion": null,
                        "blood_spots": null,
                        "created_at": null,
                        "updated_at": null
                    },
                    "examination_type": {
                        "id": 868648579,
                        "category": "internal",
                        "placement": 12,
                        "subdivision": "head",
                        "name": "brain",
                        "created_at": "2018-10-24T12:04:36.735+09:00",
                        "updated_at": "2018-10-24T12:04:36.735+09:00",
                        "organs": [
                            {
                                "id": 868648579,
                                "subject_to_histopathology_analysis": false,
                                "created_at": "2018-10-24T12:04:36.971+09:00",
                                "updated_at": "2018-10-24T12:04:36.971+09:00",
                                "name": "brain"
                            }
                        ]
                    },
                    "injuries": []
                },
                {
                    "id": 1011745075,
                    "completed": false,
                    "note": null,
                    "autopsy_id": 979617185,
                    "examination_type_id": 218343220,
                    "created_at": "2018-10-26T16:18:59.835+09:00",
                    "updated_at": "2018-10-26T16:18:59.835+09:00",
                    "serialize": {
                        "id": null,
                        "examination_id": 1011745075,
                        "subcutaneous_fat_level": null,
                        "subcutaneous_fat_thickness": null,
                        "diaphragm_height_left": null,
                        "diaphragm_height_right": null,
                        "pleura_adhesion": null,
                        "air_in_digestive_track": null,
                        "peritoneum_adhesion": null,
                        "created_at": null,
                        "updated_at": null,
                        "pleura_foreign_fluids": [],
                        "peritoneum_foreign_fluids": []
                    },
                    "examination_type": {
                        "id": 218343220,
                        "category": "internal",
                        "placement": 13,
                        "subdivision": "torso",
                        "name": "abdominal_wall",
                        "created_at": "2018-10-24T12:04:36.735+09:00",
                        "updated_at": "2018-10-24T12:04:36.735+09:00",
                        "organs": [
                            {
                                "id": 218343220,
                                "subject_to_histopathology_analysis": false,
                                "created_at": "2018-10-24T12:04:36.971+09:00",
                                "updated_at": "2018-10-24T12:04:36.971+09:00",
                                "name": "abdominal_wall"
                            }
                        ]
                    },
                    "injuries": []
                },
                {
                    "id": 1011745069,
                    "completed": false,
                    "note": null,
                    "autopsy_id": 979617185,
                    "examination_type_id": 71261465,
                    "created_at": "2018-10-26T16:18:59.808+09:00",
                    "updated_at": "2018-10-26T16:18:59.808+09:00",
                    "serialize": {
                        "id": null,
                        "examination_id": 1011745069,
                        "lymph_level": null,
                        "oesophagus_substance": null,
                        "oesophagus_substance_quantity": null,
                        "larynx_substance": null,
                        "larynx_substance_quantity": null,
                        "trachea_substance": null,
                        "trachea_substance_quantity": null,
                        "main_bronchi_substance": null,
                        "main_bronchi_substance_quantity": null,
                        "created_at": null,
                        "updated_at": null
                    },
                    "examination_type": {
                        "id": 71261465,
                        "category": "internal",
                        "placement": 14,
                        "subdivision": "torso",
                        "name": "neck_organs",
                        "created_at": "2018-10-24T12:04:36.735+09:00",
                        "updated_at": "2018-10-24T12:04:36.735+09:00",
                        "organs": [
                            {
                                "id": 71261465,
                                "subject_to_histopathology_analysis": false,
                                "created_at": "2018-10-24T12:04:36.971+09:00",
                                "updated_at": "2018-10-24T12:04:36.971+09:00",
                                "name": "neck_organs"
                            }
                        ]
                    },
                    "injuries": []
                },
                {
                    "id": 1011745077,
                    "completed": false,
                    "note": null,
                    "autopsy_id": 979617185,
                    "examination_type_id": 460801392,
                    "created_at": "2018-10-26T16:18:59.841+09:00",
                    "updated_at": "2018-10-26T16:18:59.841+09:00",
                    "serialize": {
                        "id": null,
                        "examination_id": 1011745077,
                        "congestion": null,
                        "petechia": null,
                        "created_at": null,
                        "updated_at": null
                    },
                    "examination_type": {
                        "id": 460801392,
                        "category": "internal",
                        "placement": 15,
                        "subdivision": "torso",
                        "name": "pericardium",
                        "created_at": "2018-10-24T12:04:36.735+09:00",
                        "updated_at": "2018-10-24T12:04:36.735+09:00",
                        "organs": [
                            {
                                "id": 460801392,
                                "subject_to_histopathology_analysis": false,
                                "created_at": "2018-10-24T12:04:36.971+09:00",
                                "updated_at": "2018-10-24T12:04:36.971+09:00",
                                "name": "pericardium"
                            }
                        ]
                    },
                    "injuries": []
                },
                {
                    "id": 1011745080,
                    "completed": false,
                    "note": null,
                    "autopsy_id": 979617185,
                    "examination_type_id": 552387559,
                    "created_at": "2018-10-26T16:18:59.855+09:00",
                    "updated_at": "2018-10-26T16:18:59.855+09:00",
                    "serialize": {
                        "id": null,
                        "examination_id": 1011745080,
                        "weight": null,
                        "rigor_mortis": null,
                        "epicardial_lipomatosis": null,
                        "epicardial_petechia": null,
                        "extracted_blood_quantity": null,
                        "extracted_blood_color": null,
                        "extracted_blood_coagulation": null,
                        "thickness_left": null,
                        "thickness_right": null,
                        "scar_left": null,
                        "scar_right": null,
                        "pulmonary_artery_width": null,
                        "pulmonary_artery_thrombus": null,
                        "created_at": null,
                        "updated_at": null,
                        "coronary_arteries": [],
                        "heart_chambers": []
                    },
                    "examination_type": {
                        "id": 552387559,
                        "category": "internal",
                        "placement": 16,
                        "subdivision": "torso",
                        "name": "heart",
                        "created_at": "2018-10-24T12:04:36.735+09:00",
                        "updated_at": "2018-10-24T12:04:36.735+09:00",
                        "organs": [
                            {
                                "id": 552387559,
                                "subject_to_histopathology_analysis": false,
                                "created_at": "2018-10-24T12:04:36.971+09:00",
                                "updated_at": "2018-10-24T12:04:36.971+09:00",
                                "name": "heart"
                            }
                        ]
                    },
                    "injuries": []
                },
                {
                    "id": 1011745091,
                    "completed": false,
                    "note": null,
                    "autopsy_id": 979617185,
                    "examination_type_id": 946682288,
                    "created_at": "2018-10-26T16:18:59.901+09:00",
                    "updated_at": "2018-10-26T16:18:59.901+09:00",
                    "serialize": {
                        "id": null,
                        "examination_id": 1011745091,
                        "width": null,
                        "arteriosclerosis": null,
                        "created_at": null,
                        "updated_at": null
                    },
                    "examination_type": {
                        "id": 946682288,
                        "category": "internal",
                        "placement": 17,
                        "subdivision": "torso",
                        "name": "thoracic_aorta",
                        "created_at": "2018-10-24T12:04:36.735+09:00",
                        "updated_at": "2018-10-24T12:04:36.735+09:00",
                        "organs": [
                            {
                                "id": 946682288,
                                "subject_to_histopathology_analysis": false,
                                "created_at": "2018-10-24T12:04:36.971+09:00",
                                "updated_at": "2018-10-24T12:04:36.971+09:00",
                                "name": "thoracic_aorta"
                            }
                        ]
                    },
                    "injuries": []
                },
                {
                    "id": 1011745082,
                    "completed": false,
                    "note": null,
                    "autopsy_id": 979617185,
                    "examination_type_id": 670565940,
                    "created_at": "2018-10-26T16:18:59.864+09:00",
                    "updated_at": "2018-10-26T16:18:59.864+09:00",
                    "serialize": [],
                    "examination_type": {
                        "id": 670565940,
                        "category": "internal",
                        "placement": 18,
                        "subdivision": "torso",
                        "name": "lungs",
                        "created_at": "2018-10-24T12:04:36.735+09:00",
                        "updated_at": "2018-10-24T12:04:36.735+09:00",
                        "organs": [
                            {
                                "id": 371585757,
                                "subject_to_histopathology_analysis": true,
                                "created_at": "2018-10-24T12:04:36.971+09:00",
                                "updated_at": "2018-10-24T12:04:36.971+09:00",
                                "name": "右肺"
                            },
                            {
                                "id": 402035168,
                                "subject_to_histopathology_analysis": true,
                                "created_at": "2018-10-24T12:04:36.971+09:00",
                                "updated_at": "2018-10-24T12:04:36.971+09:00",
                                "name": "左肺"
                            }
                        ]
                    },
                    "injuries": []
                },
                {
                    "id": 1011745094,
                    "completed": false,
                    "note": null,
                    "autopsy_id": 979617185,
                    "examination_type_id": 993128280,
                    "created_at": "2018-10-26T16:18:59.916+09:00",
                    "updated_at": "2018-10-26T16:18:59.916+09:00",
                    "serialize": {
                        "id": null,
                        "examination_id": 1011745094,
                        "arteriosclerosis": null,
                        "created_at": null,
                        "updated_at": null
                    },
                    "examination_type": {
                        "id": 993128280,
                        "category": "internal",
                        "placement": 19,
                        "subdivision": "torso",
                        "name": "abdominal_aorta",
                        "created_at": "2018-10-24T12:04:36.735+09:00",
                        "updated_at": "2018-10-24T12:04:36.735+09:00",
                        "organs": [
                            {
                                "id": 993128280,
                                "subject_to_histopathology_analysis": false,
                                "created_at": "2018-10-24T12:04:36.971+09:00",
                                "updated_at": "2018-10-24T12:04:36.971+09:00",
                                "name": "abdominal_aorta"
                            }
                        ]
                    },
                    "injuries": []
                },
                {
                    "id": 1011745084,
                    "completed": false,
                    "note": null,
                    "autopsy_id": 979617185,
                    "examination_type_id": 826495497,
                    "created_at": "2018-10-26T16:18:59.871+09:00",
                    "updated_at": "2018-10-26T16:18:59.871+09:00",
                    "serialize": [],
                    "examination_type": {
                        "id": 826495497,
                        "category": "internal",
                        "placement": 20,
                        "subdivision": "torso",
                        "name": "adrenal_glands",
                        "created_at": "2018-10-24T12:04:36.735+09:00",
                        "updated_at": "2018-10-24T12:04:36.735+09:00",
                        "organs": [
                            {
                                "id": 287852450,
                                "subject_to_histopathology_analysis": true,
                                "created_at": "2018-10-24T12:04:36.971+09:00",
                                "updated_at": "2018-10-24T12:04:36.971+09:00",
                                "name": "右副腎"
                            },
                            {
                                "id": 680307248,
                                "subject_to_histopathology_analysis": true,
                                "created_at": "2018-10-24T12:04:36.971+09:00",
                                "updated_at": "2018-10-24T12:04:36.971+09:00",
                                "name": "左副腎"
                            }
                        ]
                    },
                    "injuries": []
                },
                {
                    "id": 1011745087,
                    "completed": false,
                    "note": null,
                    "autopsy_id": 979617185,
                    "examination_type_id": 897590207,
                    "created_at": "2018-10-26T16:18:59.884+09:00",
                    "updated_at": "2018-10-26T16:18:59.884+09:00",
                    "serialize": [],
                    "examination_type": {
                        "id": 897590207,
                        "category": "internal",
                        "placement": 21,
                        "subdivision": "torso",
                        "name": "kidneys",
                        "created_at": "2018-10-24T12:04:36.735+09:00",
                        "updated_at": "2018-10-24T12:04:36.735+09:00",
                        "organs": [
                            {
                                "id": 632140337,
                                "subject_to_histopathology_analysis": true,
                                "created_at": "2018-10-24T12:04:36.971+09:00",
                                "updated_at": "2018-10-24T12:04:36.971+09:00",
                                "name": "左腎臓"
                            },
                            {
                                "id": 736779236,
                                "subject_to_histopathology_analysis": true,
                                "created_at": "2018-10-24T12:04:36.971+09:00",
                                "updated_at": "2018-10-24T12:04:36.971+09:00",
                                "name": "右腎臓"
                            }
                        ]
                    },
                    "injuries": []
                },
                {
                    "id": 1011745074,
                    "completed": false,
                    "note": null,
                    "autopsy_id": 979617185,
                    "examination_type_id": 147500239,
                    "created_at": "2018-10-26T16:18:59.831+09:00",
                    "updated_at": "2018-10-26T16:18:59.831+09:00",
                    "serialize": {
                        "id": null,
                        "examination_id": 1011745074,
                        "weight": null,
                        "hardness": null,
                        "congestion": null,
                        "pulp_distinct": null,
                        "created_at": null,
                        "updated_at": null
                    },
                    "examination_type": {
                        "id": 147500239,
                        "category": "internal",
                        "placement": 22,
                        "subdivision": "torso",
                        "name": "spleen",
                        "created_at": "2018-10-24T12:04:36.735+09:00",
                        "updated_at": "2018-10-24T12:04:36.735+09:00",
                        "organs": [
                            {
                                "id": 147500239,
                                "subject_to_histopathology_analysis": true,
                                "created_at": "2018-10-24T12:04:36.971+09:00",
                                "updated_at": "2018-10-24T12:04:36.971+09:00",
                                "name": "脾臓"
                            }
                        ]
                    },
                    "injuries": []
                },
                {
                    "id": 1011745085,
                    "completed": false,
                    "note": null,
                    "autopsy_id": 979617185,
                    "examination_type_id": 840921507,
                    "created_at": "2018-10-26T16:18:59.875+09:00",
                    "updated_at": "2018-10-26T16:18:59.875+09:00",
                    "serialize": {
                        "id": null,
                        "examination_id": 1011745085,
                        "hardness": null,
                        "created_at": null,
                        "updated_at": null
                    },
                    "examination_type": {
                        "id": 840921507,
                        "category": "internal",
                        "placement": 23,
                        "subdivision": "torso",
                        "name": "pancreas",
                        "created_at": "2018-10-24T12:04:36.735+09:00",
                        "updated_at": "2018-10-24T12:04:36.735+09:00",
                        "organs": [
                            {
                                "id": 840921507,
                                "subject_to_histopathology_analysis": true,
                                "created_at": "2018-10-24T12:04:36.971+09:00",
                                "updated_at": "2018-10-24T12:04:36.971+09:00",
                                "name": "膵臓"
                            }
                        ]
                    },
                    "injuries": []
                },
                {
                    "id": 1011745083,
                    "completed": false,
                    "note": null,
                    "autopsy_id": 979617185,
                    "examination_type_id": 708005576,
                    "created_at": "2018-10-26T16:18:59.868+09:00",
                    "updated_at": "2018-10-26T16:18:59.868+09:00",
                    "serialize": {
                        "id": null,
                        "examination_id": 1011745083,
                        "weight": null,
                        "hardness": null,
                        "congestion": null,
                        "steatosis": null,
                        "created_at": null,
                        "updated_at": null
                    },
                    "examination_type": {
                        "id": 708005576,
                        "category": "internal",
                        "placement": 24,
                        "subdivision": "torso",
                        "name": "liver",
                        "created_at": "2018-10-24T12:04:36.735+09:00",
                        "updated_at": "2018-10-24T12:04:36.735+09:00",
                        "organs": [
                            {
                                "id": 708005576,
                                "subject_to_histopathology_analysis": true,
                                "created_at": "2018-10-24T12:04:36.971+09:00",
                                "updated_at": "2018-10-24T12:04:36.971+09:00",
                                "name": "肝臓"
                            }
                        ]
                    },
                    "injuries": []
                },
                {
                    "id": 1011745071,
                    "completed": false,
                    "note": null,
                    "autopsy_id": 979617185,
                    "examination_type_id": 115205445,
                    "created_at": "2018-10-26T16:18:59.818+09:00",
                    "updated_at": "2018-10-26T16:18:59.818+09:00",
                    "serialize": {
                        "id": null,
                        "examination_id": 1011745071,
                        "content_color": null,
                        "content_smell": null,
                        "content_aspect": null,
                        "content_quantity": null,
                        "content_digestion": null,
                        "rugae": null,
                        "created_at": null,
                        "updated_at": null
                    },
                    "examination_type": {
                        "id": 115205445,
                        "category": "internal",
                        "placement": 25,
                        "subdivision": "torso",
                        "name": "stomach",
                        "created_at": "2018-10-24T12:04:36.735+09:00",
                        "updated_at": "2018-10-24T12:04:36.735+09:00",
                        "organs": [
                            {
                                "id": 115205445,
                                "subject_to_histopathology_analysis": false,
                                "created_at": "2018-10-24T12:04:36.971+09:00",
                                "updated_at": "2018-10-24T12:04:36.971+09:00",
                                "name": "stomach"
                            }
                        ]
                    },
                    "injuries": []
                },
                {
                    "id": 1011745096,
                    "completed": false,
                    "note": null,
                    "autopsy_id": 979617185,
                    "examination_type_id": 1061697912,
                    "created_at": "2018-10-26T16:18:59.934+09:00",
                    "updated_at": "2018-10-26T16:18:59.934+09:00",
                    "serialize": {
                        "id": null,
                        "examination_id": 1011745096,
                        "appendix": null,
                        "created_at": null,
                        "updated_at": null,
                        "intestine_sections": []
                    },
                    "examination_type": {
                        "id": 1061697912,
                        "category": "internal",
                        "placement": 26,
                        "subdivision": "torso",
                        "name": "intestines",
                        "created_at": "2018-10-24T12:04:36.735+09:00",
                        "updated_at": "2018-10-24T12:04:36.735+09:00",
                        "organs": [
                            {
                                "id": 1061697912,
                                "subject_to_histopathology_analysis": false,
                                "created_at": "2018-10-24T12:04:36.971+09:00",
                                "updated_at": "2018-10-24T12:04:36.971+09:00",
                                "name": "intestines"
                            }
                        ]
                    },
                    "injuries": []
                },
                {
                    "id": 1011745072,
                    "completed": false,
                    "note": null,
                    "autopsy_id": 979617185,
                    "examination_type_id": 121282356,
                    "created_at": "2018-10-26T16:18:59.822+09:00",
                    "updated_at": "2018-10-26T16:18:59.822+09:00",
                    "serialize": {
                        "id": null,
                        "examination_id": 1011745072,
                        "urine_color": null,
                        "urine_quantity": null,
                        "urine_transparency": null,
                        "membrane_color": null,
                        "created_at": null,
                        "updated_at": null
                    },
                    "examination_type": {
                        "id": 121282356,
                        "category": "internal",
                        "placement": 27,
                        "subdivision": "torso",
                        "name": "bladder",
                        "created_at": "2018-10-24T12:04:36.735+09:00",
                        "updated_at": "2018-10-24T12:04:36.735+09:00",
                        "organs": [
                            {
                                "id": 121282356,
                                "subject_to_histopathology_analysis": false,
                                "created_at": "2018-10-24T12:04:36.971+09:00",
                                "updated_at": "2018-10-24T12:04:36.971+09:00",
                                "name": "bladder"
                            }
                        ]
                    },
                    "injuries": []
                },
                {
                    "id": 1011745093,
                    "completed": false,
                    "note": null,
                    "autopsy_id": 979617185,
                    "examination_type_id": 976921169,
                    "created_at": "2018-10-26T16:18:59.910+09:00",
                    "updated_at": "2018-10-26T16:18:59.910+09:00",
                    "serialize": {
                        "id": null,
                        "examination_id": 1011745093,
                        "length": null,
                        "fundal_width": null,
                        "cervical_width": null,
                        "endometrium_color": null,
                        "ovaries_presence": null,
                        "ovaries_distance": null,
                        "created_at": null,
                        "updated_at": null
                    },
                    "examination_type": {
                        "id": 976921169,
                        "category": "internal",
                        "placement": 28,
                        "subdivision": "torso",
                        "name": "genitalia",
                        "created_at": "2018-10-24T12:04:36.735+09:00",
                        "updated_at": "2018-10-24T12:04:36.735+09:00",
                        "organs": [
                            {
                                "id": 855464510,
                                "subject_to_histopathology_analysis": false,
                                "created_at": "2018-10-24T12:04:36.971+09:00",
                                "updated_at": "2018-10-24T12:04:36.971+09:00",
                                "name": "genitalia"
                            }
                        ]
                    },
                    "injuries": []
                },
                {
                    "id": 1011745068,
                    "completed": false,
                    "note": null,
                    "autopsy_id": 979617185,
                    "examination_type_id": 21909758,
                    "created_at": "2018-10-26T16:18:59.804+09:00",
                    "updated_at": "2018-10-26T16:18:59.804+09:00",
                    "serialize": {
                        "id": null,
                        "examination_id": 1011745068,
                        "created_at": null,
                        "updated_at": null
                    },
                    "examination_type": {
                        "id": 21909758,
                        "category": "internal",
                        "placement": 29,
                        "subdivision": "torso",
                        "name": "back",
                        "created_at": "2018-10-24T12:04:36.735+09:00",
                        "updated_at": "2018-10-24T12:04:36.735+09:00",
                        "organs": []
                    },
                    "injuries": []
                }
            ],
            "analyses": [],
            "autopsy_photograph_takings": []
        }
    }
}